%YAML 1.1
%TAG !u! tag:unity3d.com,2011:
--- !u!114 &11400000
MonoBehaviour:
  m_ObjectHideFlags: 0
  m_CorrespondingSourceObject: {fileID: 0}
  m_PrefabInstance: {fileID: 0}
  m_PrefabAsset: {fileID: 0}
  m_GameObject: {fileID: 0}
  m_Enabled: 1
  m_EditorHideFlags: 0
  m_Script: {fileID: 11500000, guid: 2198d134f9599774887b93c8f539830d, type: 3}
  m_Name: CopyFilesPostProcessBuild
  m_EditorClassIdentifier: 
  active: 1
  buildBasePath: StreamingAssets
  assetFilesToCopy: []
  assetFoldersToCopy: []
  ignoredExtensions:
  - .meta
  maintainFolderHierarchy: 1
  targets: 130000000500000002000000110000001800000019000000
